{
    "version": "https://jsonfeed.org/version/1.1",
    "title": "Documentation on Digital Fabrication",
    "description": "Recent content in Documentation on Digital Fabrication",
    "home_page_url": "https://sarisko.gitlab.io/digital-fabrication/",
    "feed_url": "https://sarisko.gitlab.io/digital-fabrication/documentation/index.json",
    "language": "en-GB",
    "icon": "https://sarisko.gitlab.io/digital-fabrication/apple-touch-icon.png",
    "favicon": "https://sarisko.gitlab.io/digital-fabrication/apple-touch-icon.png",
    "authors": [
        {
            "name": "Sara Kutkova",
            "url": "https://sarisko.gitlab.io/digital-fabrication/",
            "avatar": "https://sarisko.gitlab.io/digital-fabrication/path/to/some-image.jpg"
        }
    ],
    "items": [
        {
            "title": "Week 1",
            "date_published": "0001-01-01T00:00:00Z",
            "date_modified": "0001-01-01T00:00:00Z",
            "id": "https://sarisko.gitlab.io/digital-fabrication/documentation/week1/",
            "url": "https://sarisko.gitlab.io/digital-fabrication/documentation/week1/",
            "content_html": "\u003cp\u003eIn the first week, we talked about the course structure and the basics of Git and Git CI. We also developed and deployed the first basic version of a website that will document our progress throughout the course.\u003c/p\u003e\n"
        },
        {
            "title": "Week 2",
            "date_published": "0001-01-01T00:00:00Z",
            "date_modified": "0001-01-01T00:00:00Z",
            "id": "https://sarisko.gitlab.io/digital-fabrication/documentation/week2/",
            "url": "https://sarisko.gitlab.io/digital-fabrication/documentation/week2/",
            "content_html": "\u003cp\u003eLorem ipsum dolor sit amet, consectetur adipisicing elit, sed do eiusmod tempor incididunt ut labore et dolore magna aliqua. Ut enim ad minim veniam, quis nostrud exercitation ullamco laboris nisi ut aliquip ex ea commodo consequat. Duis aute irure dolor in reprehenderit in voluptate velit esse cillum dolore eu fugiat nulla pariatur. Excepteur sint occaecat cupidatat non proident, sunt in culpa qui officia deserunt mollit anim id est laborum.\u003c/p\u003e\n"
        }
        ]
}
