<?xml version="1.0" encoding="UTF-8"?>
<svg width="700pt" height="700pt" version="1.1" viewBox="0 0 700 700" xmlns="http://www.w3.org/2000/svg" xmlns:xlink="http://www.w3.org/1999/xlink">
 <defs>
  <symbol id="w" overflow="visible">
   <path d="m18.766-1.125c-0.96875 0.5-1.9805 0.875-3.0312 1.125-1.043 0.25781-2.1367 0.39062-3.2812 0.39062-3.3984 0-6.0898-0.94531-8.0781-2.8438-1.9922-1.9062-2.9844-4.4844-2.9844-7.7344 0-3.2578 0.99219-5.8359 2.9844-7.7344 1.9883-1.9062 4.6797-2.8594 8.0781-2.8594 1.1445 0 2.2383 0.13281 3.2812 0.39062 1.0508 0.25 2.0625 0.625 3.0312 1.125v4.2188c-0.98047-0.65625-1.9453-1.1406-2.8906-1.4531-0.94922-0.3125-1.9492-0.46875-3-0.46875-1.875 0-3.3516 0.60547-4.4219 1.8125-1.0742 1.1992-1.6094 2.8555-1.6094 4.9688 0 2.1055 0.53516 3.7617 1.6094 4.9688 1.0703 1.1992 2.5469 1.7969 4.4219 1.7969 1.0508 0 2.0508-0.14844 3-0.45312 0.94531-0.3125 1.9102-0.80078 2.8906-1.4688z"/>
  </symbol>
  <symbol id="b" overflow="visible">
   <path d="m13.734-11.141c-0.4375-0.19531-0.87109-0.34375-1.2969-0.4375-0.41797-0.10156-0.83984-0.15625-1.2656-0.15625-1.2617 0-2.2305 0.40625-2.9062 1.2188-0.67969 0.80469-1.0156 1.9531-1.0156 3.4531v7.0625h-4.8906v-15.312h4.8906v2.5156c0.625-1 1.3438-1.7266 2.1562-2.1875 0.82031-0.46875 1.8008-0.70312 2.9375-0.70312 0.16406 0 0.34375 0.011719 0.53125 0.03125 0.19531 0.011719 0.47656 0.039062 0.84375 0.078125z"/>
  </symbol>
  <symbol id="a" overflow="visible">
   <path d="m17.641-7.7031v1.4062h-11.453c0.125 1.1484 0.53906 2.0078 1.25 2.5781 0.70703 0.57422 1.7031 0.85938 2.9844 0.85938 1.0312 0 2.082-0.14844 3.1562-0.45312 1.082-0.3125 2.1914-0.77344 3.3281-1.3906v3.7656c-1.1562 0.4375-2.3125 0.76562-3.4688 0.98438-1.1562 0.22656-2.3125 0.34375-3.4688 0.34375-2.7734 0-4.9297-0.70312-6.4688-2.1094-1.5312-1.4062-2.2969-3.3789-2.2969-5.9219 0-2.5 0.75391-4.4609 2.2656-5.8906 1.5078-1.4375 3.582-2.1562 6.2188-2.1562 2.4062 0 4.332 0.73047 5.7812 2.1875 1.4453 1.4492 2.1719 3.3828 2.1719 5.7969zm-5.0312-1.625c0-0.92578-0.27344-1.6719-0.8125-2.2344-0.54297-0.57031-1.25-0.85938-2.125-0.85938-0.94922 0-1.7188 0.26562-2.3125 0.79688s-0.96484 1.2969-1.1094 2.2969z"/>
  </symbol>
  <symbol id="d" overflow="visible">
   <path d="m9.2188-6.8906c-1.0234 0-1.793 0.17188-2.3125 0.51562-0.51172 0.34375-0.76562 0.85547-0.76562 1.5312 0 0.625 0.20703 1.1172 0.625 1.4688 0.41406 0.34375 0.98828 0.51562 1.7188 0.51562 0.92578 0 1.7031-0.32812 2.3281-0.98438 0.63281-0.66406 0.95312-1.4922 0.95312-2.4844v-0.5625zm7.4688-1.8438v8.7344h-4.9219v-2.2656c-0.65625 0.92969-1.3984 1.6055-2.2188 2.0312-0.82422 0.41406-1.8242 0.625-3 0.625-1.5859 0-2.8711-0.45703-3.8594-1.375-0.99219-0.92578-1.4844-2.1289-1.4844-3.6094 0-1.7891 0.61328-3.1016 1.8438-3.9375 1.2383-0.84375 3.1797-1.2656 5.8281-1.2656h2.8906v-0.39062c0-0.76953-0.30859-1.332-0.92188-1.6875-0.61719-0.36328-1.5703-0.54688-2.8594-0.54688-1.0547 0-2.0312 0.10547-2.9375 0.3125-0.89844 0.21094-1.7305 0.52344-2.5 0.9375v-3.7344c1.0391-0.25 2.0859-0.44141 3.1406-0.57812 1.0625-0.13281 2.125-0.20312 3.1875-0.20312 2.7578 0 4.75 0.54688 5.9688 1.6406 1.2266 1.0859 1.8438 2.8555 1.8438 5.3125z"/>
  </symbol>
  <symbol id="c" overflow="visible">
   <path d="m7.7031-19.656v4.3438h5.0469v3.5h-5.0469v6.5c0 0.71094 0.14062 1.1875 0.42188 1.4375s0.83594 0.375 1.6719 0.375h2.5156v3.5h-4.1875c-1.9375 0-3.3125-0.39844-4.125-1.2031-0.80469-0.8125-1.2031-2.1797-1.2031-4.1094v-6.5h-2.4219v-3.5h2.4219v-4.3438z"/>
  </symbol>
  <symbol id="f" overflow="visible">
   <path d="m12.766-13.078v-8.2031h4.9219v21.281h-4.9219v-2.2188c-0.66797 0.90625-1.4062 1.5703-2.2188 1.9844s-1.7578 0.625-2.8281 0.625c-1.8867 0-3.4336-0.75-4.6406-2.25-1.2109-1.5-1.8125-3.4258-1.8125-5.7812 0-2.3633 0.60156-4.2969 1.8125-5.7969 1.207-1.5 2.7539-2.25 4.6406-2.25 1.0625 0 2 0.21484 2.8125 0.64062 0.82031 0.42969 1.5664 1.0859 2.2344 1.9688zm-3.2188 9.9219c1.0391 0 1.8359-0.37891 2.3906-1.1406 0.55078-0.76953 0.82812-1.8828 0.82812-3.3438 0-1.457-0.27734-2.5664-0.82812-3.3281-0.55469-0.76953-1.3516-1.1562-2.3906-1.1562-1.043 0-1.8398 0.38672-2.3906 1.1562-0.55469 0.76172-0.82812 1.8711-0.82812 3.3281 0 1.4609 0.27344 2.5742 0.82812 3.3438 0.55078 0.76172 1.3477 1.1406 2.3906 1.1406z"/>
  </symbol>
  <symbol id="k" overflow="visible">
   <path d="m10.5-3.1562c1.0508 0 1.8516-0.37891 2.4062-1.1406 0.55078-0.76953 0.82812-1.8828 0.82812-3.3438 0-1.457-0.27734-2.5664-0.82812-3.3281-0.55469-0.76953-1.3555-1.1562-2.4062-1.1562-1.0547 0-1.8594 0.38672-2.4219 1.1562-0.55469 0.77344-0.82812 1.8828-0.82812 3.3281 0 1.4492 0.27344 2.5586 0.82812 3.3281 0.5625 0.77344 1.3672 1.1562 2.4219 1.1562zm-3.25-9.9219c0.67578-0.88281 1.4219-1.5391 2.2344-1.9688 0.82031-0.42578 1.7656-0.64062 2.8281-0.64062 1.8945 0 3.4453 0.75 4.6562 2.25 1.207 1.5 1.8125 3.4336 1.8125 5.7969 0 2.3555-0.60547 4.2812-1.8125 5.7812-1.2109 1.5-2.7617 2.25-4.6562 2.25-1.0625 0-2.0078-0.21094-2.8281-0.625-0.8125-0.42578-1.5586-1.0859-2.2344-1.9844v2.2188h-4.8906v-21.281h4.8906z"/>
  </symbol>
  <symbol id="j" overflow="visible">
   <path d="m0.34375-15.312h4.8906l4.125 10.391 3.5-10.391h4.8906l-6.4375 16.766c-0.64844 1.6953-1.4023 2.8828-2.2656 3.5625-0.86719 0.6875-2 1.0312-3.4062 1.0312h-2.8438v-3.2188h1.5312c0.83203 0 1.4375-0.13672 1.8125-0.40625 0.38281-0.26172 0.67969-0.73047 0.89062-1.4062l0.14062-0.42188z"/>
  </symbol>
  <symbol id="i" overflow="visible">
   <path d="m2.5781-20.406h5.25v7.7656h7.7656v-7.7656h5.2656v20.406h-5.2656v-8.6562h-7.7656v8.6562h-5.25z"/>
  </symbol>
  <symbol id="h" overflow="visible">
   <path d="m17.75-9.3281v9.3281h-4.9219v-7.1406c0-1.3203-0.03125-2.2344-0.09375-2.7344s-0.16797-0.86719-0.3125-1.1094c-0.1875-0.3125-0.44922-0.55469-0.78125-0.73438-0.32422-0.17578-0.69531-0.26562-1.1094-0.26562-1.0234 0-1.8242 0.39844-2.4062 1.1875-0.58594 0.78125-0.875 1.8711-0.875 3.2656v7.5312h-4.8906v-15.312h4.8906v2.2344c0.73828-0.88281 1.5195-1.5391 2.3438-1.9688 0.83203-0.42578 1.75-0.64062 2.75-0.64062 1.7695 0 3.1133 0.54688 4.0312 1.6406 0.91406 1.0859 1.375 2.6562 1.375 4.7188z"/>
  </symbol>
  <symbol id="v" overflow="visible">
   <path d="m14.312-14.828v3.7188c-1.043-0.4375-2.0547-0.76562-3.0312-0.98438-0.98047-0.21875-1.9023-0.32812-2.7656-0.32812-0.92969 0-1.6211 0.11719-2.0781 0.34375-0.44922 0.23047-0.67188 0.58984-0.67188 1.0781 0 0.38672 0.17188 0.68359 0.51562 0.89062 0.34375 0.21094 0.95703 0.36719 1.8438 0.46875l0.85938 0.125c2.5078 0.32422 4.1953 0.85156 5.0625 1.5781 0.86328 0.73047 1.2969 1.8711 1.2969 3.4219 0 1.6367-0.60547 2.8672-1.8125 3.6875-1.1992 0.8125-2.9922 1.2188-5.375 1.2188-1.0234 0-2.0742-0.078125-3.1562-0.23438-1.0742-0.15625-2.1797-0.39453-3.3125-0.71875v-3.7188c0.96875 0.48047 1.9609 0.83984 2.9844 1.0781 1.0312 0.23047 2.0781 0.34375 3.1406 0.34375 0.95703 0 1.6758-0.12891 2.1562-0.39062 0.47656-0.26953 0.71875-0.66406 0.71875-1.1875 0-0.4375-0.16797-0.75781-0.5-0.96875-0.33594-0.21875-0.99609-0.38281-1.9844-0.5l-0.85938-0.10938c-2.1797-0.26953-3.7031-0.77344-4.5781-1.5156-0.875-0.73828-1.3125-1.8594-1.3125-3.3594 0-1.625 0.55078-2.8281 1.6562-3.6094 1.1133-0.78906 2.8203-1.1875 5.125-1.1875 0.89453 0 1.8359 0.074219 2.8281 0.21875 1 0.13672 2.082 0.35156 3.25 0.64062z"/>
  </symbol>
  <symbol id="u" overflow="visible">
   <path d="m20.922-1.5156c-1.3125 0.63672-2.6797 1.1172-4.0938 1.4375-1.4062 0.3125-2.8672 0.46875-4.375 0.46875-3.3984 0-6.0898-0.94531-8.0781-2.8438-1.9922-1.9062-2.9844-4.4844-2.9844-7.7344 0-3.2891 1.0078-5.8789 3.0312-7.7656 2.0312-1.8828 4.8047-2.8281 8.3281-2.8281 1.3516 0 2.6484 0.13281 3.8906 0.39062 1.25 0.25 2.4258 0.625 3.5312 1.125v4.2188c-1.1484-0.64453-2.2812-1.125-3.4062-1.4375-1.125-0.32031-2.25-0.48438-3.375-0.48438-2.1055 0-3.7266 0.58984-4.8594 1.7656-1.125 1.168-1.6875 2.8398-1.6875 5.0156 0 2.1562 0.54688 3.8242 1.6406 5 1.0938 1.1797 2.6445 1.7656 4.6562 1.7656 0.53906 0 1.0469-0.03125 1.5156-0.09375 0.47656-0.070313 0.89844-0.17969 1.2656-0.32812v-3.9688h-3.2031v-3.5156h8.2031z"/>
  </symbol>
  <symbol id="g" overflow="visible">
   <path d="m17.75-9.3281v9.3281h-4.9219v-7.1094c0-1.3438-0.03125-2.2656-0.09375-2.7656s-0.16797-0.86719-0.3125-1.1094c-0.1875-0.3125-0.44922-0.55469-0.78125-0.73438-0.32422-0.17578-0.69531-0.26562-1.1094-0.26562-1.0234 0-1.8242 0.39844-2.4062 1.1875-0.58594 0.78125-0.875 1.8711-0.875 3.2656v7.5312h-4.8906v-21.281h4.8906v8.2031c0.73828-0.88281 1.5195-1.5391 2.3438-1.9688 0.83203-0.42578 1.75-0.64062 2.75-0.64062 1.7695 0 3.1133 0.54688 4.0312 1.6406 0.91406 1.0859 1.375 2.6562 1.375 4.7188z"/>
  </symbol>
  <symbol id="t" overflow="visible">
   <path d="m2.5781-20.406h6.6875l4.6562 10.922 4.6719-10.922h6.6875v20.406h-4.9844v-14.938l-4.7031 11.016h-3.3281l-4.7031-11.016v14.938h-4.9844z"/>
  </symbol>
  <symbol id="s" overflow="visible">
   <path d="m2.3594-15.312h4.8906v15.312h-4.8906zm0-5.9688h4.8906v4h-4.8906z"/>
  </symbol>
  <symbol id="r" overflow="visible">
   <path d="m12.422-21.281v3.2188h-2.7031c-0.6875 0-1.1719 0.125-1.4531 0.375-0.27344 0.25-0.40625 0.6875-0.40625 1.3125v1.0625h4.1875v3.5h-4.1875v11.812h-4.8906v-11.812h-2.4375v-3.5h2.4375v-1.0625c0-1.6641 0.46094-2.8984 1.3906-3.7031 0.92578-0.80078 2.3672-1.2031 4.3281-1.2031z"/>
  </symbol>
  <symbol id="e" overflow="visible">
   <path d="m9.6406-12.188c-1.0859 0-1.9141 0.39062-2.4844 1.1719-0.57422 0.78125-0.85938 1.9062-0.85938 3.375s0.28516 2.5938 0.85938 3.375c0.57031 0.77344 1.3984 1.1562 2.4844 1.1562 1.0625 0 1.875-0.38281 2.4375-1.1562 0.57031-0.78125 0.85938-1.9062 0.85938-3.375s-0.28906-2.5938-0.85938-3.375c-0.5625-0.78125-1.375-1.1719-2.4375-1.1719zm0-3.5c2.6328 0 4.6914 0.71484 6.1719 2.1406 1.4766 1.418 2.2188 3.3867 2.2188 5.9062 0 2.5117-0.74219 4.4805-2.2188 5.9062-1.4805 1.418-3.5391 2.125-6.1719 2.125-2.6484 0-4.7148-0.70703-6.2031-2.125-1.4922-1.4258-2.2344-3.3945-2.2344-5.9062 0-2.5195 0.74219-4.4883 2.2344-5.9062 1.4883-1.4258 3.5547-2.1406 6.2031-2.1406z"/>
  </symbol>
  <symbol id="q" overflow="visible">
   <path d="m16.547-12.766c0.61328-0.94531 1.3477-1.6719 2.2031-2.1719 0.85156-0.5 1.7891-0.75 2.8125-0.75 1.7578 0 3.0977 0.54688 4.0156 1.6406 0.92578 1.0859 1.3906 2.6562 1.3906 4.7188v9.3281h-4.9219v-7.9844-0.35938c0.007813-0.13281 0.015625-0.32031 0.015625-0.5625 0-1.082-0.16406-1.8633-0.48438-2.3438-0.3125-0.48828-0.82422-0.73438-1.5312-0.73438-0.92969 0-1.6484 0.38672-2.1562 1.1562-0.51172 0.76172-0.77344 1.8672-0.78125 3.3125v7.5156h-4.9219v-7.9844c0-1.6953-0.14844-2.7852-0.4375-3.2656-0.29297-0.48828-0.8125-0.73438-1.5625-0.73438-0.9375 0-1.6641 0.38672-2.1719 1.1562-0.51172 0.76172-0.76562 1.8594-0.76562 3.2969v7.5312h-4.9219v-15.312h4.9219v2.2344c0.60156-0.86328 1.2891-1.5156 2.0625-1.9531 0.78125-0.4375 1.6406-0.65625 2.5781-0.65625 1.0625 0 2 0.25781 2.8125 0.76562 0.8125 0.51172 1.4258 1.2305 1.8438 2.1562z"/>
  </symbol>
  <symbol id="p" overflow="visible">
   <path d="m2.5781-20.406h5.875l7.4219 14v-14h4.9844v20.406h-5.875l-7.4219-14v14h-4.9844z"/>
  </symbol>
  <symbol id="o" overflow="visible">
   <path d="m2.1875-5.9688v-9.3438h4.9219v1.5312c0 0.83594-0.007813 1.875-0.015625 3.125-0.011719 1.25-0.015625 2.0859-0.015625 2.5 0 1.2422 0.03125 2.1328 0.09375 2.6719 0.070313 0.54297 0.17969 0.93359 0.32812 1.1719 0.20703 0.32422 0.47266 0.57422 0.79688 0.75 0.32031 0.16797 0.69141 0.25 1.1094 0.25 1.0195 0 1.8203-0.39062 2.4062-1.1719 0.58203-0.78125 0.875-1.8672 0.875-3.2656v-7.5625h4.8906v15.312h-4.8906v-2.2188c-0.74219 0.89844-1.5234 1.5586-2.3438 1.9844-0.82422 0.41406-1.7344 0.625-2.7344 0.625-1.7617 0-3.1055-0.53906-4.0312-1.625-0.92969-1.082-1.3906-2.6602-1.3906-4.7344z"/>
  </symbol>
  <symbol id="n" overflow="visible">
   <path d="m2.5781-20.406h8.7344c2.5938 0 4.582 0.57812 5.9688 1.7344 1.3945 1.1484 2.0938 2.7891 2.0938 4.9219 0 2.1367-0.69922 3.7812-2.0938 4.9375-1.3867 1.1562-3.375 1.7344-5.9688 1.7344h-3.4844v7.0781h-5.25zm5.25 3.8125v5.7031h2.9219c1.0195 0 1.8047-0.25 2.3594-0.75 0.5625-0.5 0.84375-1.2031 0.84375-2.1094 0-0.91406-0.28125-1.6172-0.84375-2.1094-0.55469-0.48828-1.3398-0.73438-2.3594-0.73438z"/>
  </symbol>
  <symbol id="m" overflow="visible">
   <path d="m2.3594-15.312h4.8906v15.031c0 2.0508-0.49609 3.6172-1.4844 4.7031-0.98047 1.082-2.4062 1.625-4.2812 1.625h-2.4219v-3.2188h0.85938c0.92578 0 1.5625-0.21094 1.9062-0.625 0.35156-0.41797 0.53125-1.2461 0.53125-2.4844zm0-5.9688h4.8906v4h-4.8906z"/>
  </symbol>
  <symbol id="l" overflow="visible">
   <path d="m14.719-14.828v3.9844c-0.65625-0.45703-1.3242-0.79688-2-1.0156-0.66797-0.21875-1.3594-0.32812-2.0781-0.32812-1.3672 0-2.4336 0.40234-3.2031 1.2031-0.76172 0.79297-1.1406 1.9062-1.1406 3.3438 0 1.4297 0.37891 2.543 1.1406 3.3438 0.76953 0.79297 1.8359 1.1875 3.2031 1.1875 0.75781 0 1.4844-0.10938 2.1719-0.32812 0.6875-0.22656 1.3203-0.56641 1.9062-1.0156v4c-0.76172 0.28125-1.5391 0.48828-2.3281 0.625-0.78125 0.14453-1.5742 0.21875-2.375 0.21875-2.7617 0-4.9219-0.70703-6.4844-2.125-1.5547-1.4141-2.3281-3.3828-2.3281-5.9062 0-2.5312 0.77344-4.5039 2.3281-5.9219 1.5625-1.4141 3.7227-2.125 6.4844-2.125 0.80078 0 1.5938 0.074219 2.375 0.21875 0.78125 0.13672 1.5547 0.35156 2.3281 0.64062z"/>
  </symbol>
 </defs>
 <g>
  <path d="m374.98 258.89c2.2656 0 4.3047-1.3633 5.1719-3.457 0.86719-2.0898 0.39062-4.5-1.2109-6.1016s-4.0117-2.082-6.1055-1.2148c-2.0898 0.86719-3.457 2.9102-3.457 5.1758 0 1.4844 0.58984 2.9102 1.6406 3.957 1.0508 1.0508 2.4766 1.6406 3.9609 1.6406zm139.1-86.406h-139.1v-23.41h-21.953c-7.6445-23.547-25.715-42.262-48.98-50.73-23.27-8.4688-49.137-5.7461-70.133 7.3789s-34.773 35.191-37.352 59.816c-1.0234 2.2578-1.9023 4.5742-2.6289 6.9453h-8.0078c-6.4648 0-11.707 5.2383-11.707 11.703v232.96c0 6.4648 5.2422 11.703 11.707 11.703h22.848l3.6406 18.367h18.199l3.6406-18.367h227.75l3.6406 18.367h18.199l3.6406-18.367h26.598c6.4648 0 11.707-5.2383 11.707-11.703v-232.91c0.015625-3.1133-1.2109-6.1016-3.4102-8.3086-2.1953-2.207-5.1797-3.4492-8.2969-3.4492zm-61.602 33.879h0.003907c-0.011719 0.13281-0.011719 0.26172 0 0.39453v31.977l-48.047-0.003907c-1.1797-3.9062-4.3281-6.9062-8.2891-7.8945v-7.6172c0-0.74219-0.29688-1.4531-0.82031-1.9805-0.52734-0.52344-1.2383-0.82031-1.9805-0.82031h-15.734c-0.10547-3.6836-1.875-7.125-4.8164-9.3516-6.6641-4.4805-17.641 0-27.328 3.8633v0.003907c-4.0352 2.0156-8.3633 3.3789-12.824 4.0312 0-0.39063-0.61719-2.7422 4.3125-12.543zm-54.598 167.05-5.6016-3.4727 5.6016-3.4727v0.003906c0.83984-0.51172 1.3516-1.4258 1.3438-2.4102v-3.9766c0.007813-0.98047-0.50391-1.8945-1.3438-2.4062l-5.6016-3.4727 5.6016-3.4727c0.83984-0.50781 1.3516-1.4219 1.3438-2.4062v-3.9766c0.007813-0.98438-0.50391-1.8984-1.3438-2.4062l-1.1211-0.67188h56v35.504h-53.535v-0.89844c0.027344-1-0.48438-1.9414-1.3438-2.4648zm-167.33-37.797 48.273-22.848h32.535c9.582 10 22.832 15.656 36.68 15.656 13.852 0 27.102-5.6562 36.68-15.656h32.48l48.273 22.848zm97.777-113.07c3.4141 3.9766 10.359 1.1211 19.207-2.4062 8.8477-3.5273 17.922-7.2227 22.121-4.4258 1.4102 1.168 2.2656 2.875 2.3516 4.7031h-15.398c-1.5469 0-2.8008 1.2539-2.8008 2.8008v7.5039c-4.6328 0.78125-8.3438 4.2734-9.4102 8.8477h-100.8v-32.758c0.007813-0.13281 0.007813-0.26172 0-0.39453h87.078c-4.6484 9.8008-4.4219 13.723-2.3516 16.129zm28 40.152h4.0312l3.2461 4.7031c-5.6016 0-11.199-0.33594-15.848-0.33594-19.098 0-51.07 1.3438-51.07 10.246v0.003906c0.10547 5.4609 1.0859 10.867 2.9141 16.016 0.078126 0.64062 0.30859 1.2578 0.67188 1.793 1.6016 4.2617 3.7695 8.293 6.4375 11.984h-28.504c-0.38672-0.085938-0.78906-0.085938-1.1758 0l-33.602 15.848 0.003906-79.41h100.96c0.58594 5.082 4.4336 9.1758 9.4648 10.082v6.3281c0 1.5234 1.2188 2.7695 2.7461 2.8008zm-51.129 29.906c-1.707-4.7266-2.6172-9.7031-2.6875-14.73 2.8008-2.2383 19.602-5.207 45.473-5.207 7.4492 0 14.168 0 19.992 0.67188l4.4219 6.6641c0.25781 0.375 0.60547 0.68359 1.0078 0.89453l-7.1133 0.55859c-3.9766 0-7.2227 4.3672-10.586 8.7344-2.4648 3.1367-5.6016 7.4492-7.8945 7.4492-27.605-0.050781-40.148-3.2461-42.613-5.0352zm42.785 10.586c4.8164 0 8.625-4.8711 12.32-9.6328 2.0156-2.5742 5.0391-6.4961 6.5508-6.5508v-0.003906c8.8672-0.17969 17.676-1.5 26.207-3.9219-1.5625 12.734-8.4414 24.207-18.93 31.594-10.488 7.3828-23.609 9.9883-36.121 7.1719-12.516-2.8203-23.254-10.797-29.562-21.965 13.02 2.6484 26.309 3.7578 39.59 3.3047zm28.672-22.398v-0.003906c0.21094-0.16016 0.40234-0.34766 0.55859-0.5625l3.6953-5.6016v0.003906c3.9414 0.40234 7.8125 1.2891 11.539 2.6328-5.0742 1.8086-10.367 2.918-15.738 3.3008zm22.398-2.4062v-0.007812c0.019531-0.27734 0.019531-0.55859 0-0.83984 0-3.8633-6.1055-6.3281-14.559-7.8398l4.7031-6.7188h4.0312c0.74219 0 1.457-0.29687 1.9805-0.82031 0.52734-0.52734 0.82031-1.2383 0.82031-1.9805v-6.7188c4.3945-1.0938 7.7578-4.6289 8.625-9.0742h47.77v78.848l-33.602-15.848c-0.38672-0.082031-0.78906-0.082031-1.1758 0h-28.449c6.2578-8.4805 9.7227-18.695 9.9141-29.23zm-8.5664-21.055h-2.7422l-0.003906-0.007813c-0.91016-0.003906-1.7656 0.43359-2.293 1.1758l-10.527 15.176-10.586-15.176c-0.52734-0.74219-1.3867-1.1797-2.2969-1.1758h-2.6875v-31.305h31.137zm-113.9-149.7c13.223 0.003907 26.145 3.9453 37.117 11.328 10.973 7.3789 19.496 17.863 24.48 30.109h-13.16v23.41h-22.398c-5.0117-16.699-17.426-30.164-33.664-36.508-16.242-6.3398-34.496-4.8555-49.496 4.0273 12.012-20.094 33.707-32.391 57.121-32.367zm-28.336 48.105-0.003906-0.003906c11.934 0.074219 22.934 6.4688 28.898 16.801h-57.848c5.9766-10.352 17-16.746 28.949-16.801zm-40.938 50.68 30.688-0.003907c-0.007812 0.13281-0.007812 0.26172 0 0.39453v32.762l-30.688-0.003906zm0 188.72v-151.59h30.688v82.379l-21.113 10.078c-1.5469 0.32422-2.5352 1.8398-2.2109 3.3867s1.8438 2.5391 3.3867 2.2148h19.938v35.281-0.003906c-0.003906 0.42969 0.09375 0.85156 0.28125 1.2344zm94.809-5.9375c-0.83984 0.51172-1.3516 1.4258-1.3438 2.4102v6.5508h-87.531l28-15.902h60.93l5.6016 3.4727zm0-22.734 5.6016 3.4727-5.6016 3.4727v-0.003906c-0.83984 0.51172-1.3516 1.4258-1.3438 2.4102v0.89453h-57.176v-35.281l59.695 0.003906-1.1758 0.67188c-0.83984 0.50781-1.3516 1.4219-1.3438 2.4062v3.9766c-0.007813 0.98438 0.50391 1.8984 1.3438 2.4062l5.6016 3.4727-5.6016 3.4727c-0.83984 0.51172-1.3516 1.4258-1.3438 2.4062v3.7539c-0.007813 0.98438 0.50391 1.8984 1.3438 2.4062zm9.8008-12.266c0-0.77344 0.625-1.3984 1.3984-1.3984h26.879c0.77344 0 1.4023 0.625 1.4023 1.3984 0 0.77344-0.62891 1.4023-1.4023 1.4023h-26.879c-0.38281 0-0.74609-0.15625-1.0117-0.42969-0.26172-0.27734-0.40234-0.64844-0.38672-1.0273zm33.152 32.93h-16.129c-0.77344 0-1.4023-0.62891-1.4023-1.4023 0-0.77344 0.62891-1.3984 1.4023-1.3984h16.129-0.003907c0.77344 0 1.4023 0.625 1.4023 1.3984 0 0.77344-0.62891 1.4023-1.4023 1.4023zm25.93-15.793h-1.9062c-0.77344 0-1.4023-0.625-1.4023-1.3984s0.62891-1.4023 1.4023-1.4023h1.9023c0.77344 0 1.3984 0.62891 1.3984 1.4023s-0.625 1.3984-1.3984 1.3984zm28 26.824-0.003906-6.6094c0.003906-0.98047-0.50391-1.8945-1.3438-2.4062l-5.6016-3.4727 5.6016-3.4727h56.953l28 15.902zm89.602-3.0234-30.633-17.246-0.003906-36.684h19.824c1.5469 0.32422 3.0625-0.66406 3.3867-2.2109 0.32422-1.5469-0.66406-3.0625-2.2109-3.3867l-20.832-9.6875v-81.539h30.633zm0-156.35h-30.469v-31.977c0.007812-0.13281 0.007812-0.26172 0-0.39453h30.742z"/>
  <use x="70" y="644" xlink:href="#w"/>
  <use x="90.550781" y="644" xlink:href="#b"/>
  <use x="104.359375" y="644" xlink:href="#a"/>
  <use x="123.347656" y="644" xlink:href="#d"/>
  <use x="142.242188" y="644" xlink:href="#c"/>
  <use x="155.628906" y="644" xlink:href="#a"/>
  <use x="174.617188" y="644" xlink:href="#f"/>
  <use x="204.410156" y="644" xlink:href="#k"/>
  <use x="224.453125" y="644" xlink:href="#j"/>
  <use x="252.453125" y="644" xlink:href="#i"/>
  <use x="275.882812" y="644" xlink:href="#d"/>
  <use x="294.78125" y="644" xlink:href="#h"/>
  <use x="314.710938" y="644" xlink:href="#v"/>
  <use x="341.125" y="644" xlink:href="#u"/>
  <use x="364.109375" y="644" xlink:href="#a"/>
  <use x="383.101562" y="644" xlink:href="#b"/>
  <use x="396.90625" y="644" xlink:href="#g"/>
  <use x="416.84375" y="644" xlink:href="#d"/>
  <use x="435.734375" y="644" xlink:href="#b"/>
  <use x="449.546875" y="644" xlink:href="#f"/>
  <use x="479.335938" y="644" xlink:href="#t"/>
  <use x="507.199219" y="644" xlink:href="#a"/>
  <use x="526.1875" y="644" xlink:href="#s"/>
  <use x="535.789062" y="644" xlink:href="#a"/>
  <use x="554.777344" y="644" xlink:href="#b"/>
  <use x="70" y="672" xlink:href="#r"/>
  <use x="82.183594" y="672" xlink:href="#b"/>
  <use x="95.992188" y="672" xlink:href="#e"/>
  <use x="115.226562" y="672" xlink:href="#q"/>
  <use x="154.152344" y="672" xlink:href="#c"/>
  <use x="167.535156" y="672" xlink:href="#g"/>
  <use x="187.46875" y="672" xlink:href="#a"/>
  <use x="216.207031" y="672" xlink:href="#p"/>
  <use x="239.640625" y="672" xlink:href="#e"/>
  <use x="258.878906" y="672" xlink:href="#o"/>
  <use x="278.8125" y="672" xlink:href="#h"/>
  <use x="308.492188" y="672" xlink:href="#n"/>
  <use x="329.015625" y="672" xlink:href="#b"/>
  <use x="342.820312" y="672" xlink:href="#e"/>
  <use x="362.058594" y="672" xlink:href="#m"/>
  <use x="371.65625" y="672" xlink:href="#a"/>
  <use x="390.648438" y="672" xlink:href="#l"/>
  <use x="407.242188" y="672" xlink:href="#c"/>
 </g>
</svg>
